{

    "pflow": {
        "mc21":true,
        "mc24":false,
        "data":false,
        "offline_jets": true,
        "do_track_matching": true,
        "emtopo_jets": true,
        "additional_chains": [],
        "dumper": {
    
            "jet_collection": "tempJets",
            "calibration": {},
            "selection": {
                "minimum_jet_pt": 20000,
                "maximum_jet_absolute_eta": 2.5
            },
            "vertex_collection": "HLT_IDVertex_FS",
            "dl2_configs": [
                {
                    "nn_file_path": "BTagging/20220813trig/gn1/antikt4empflow/network.onnx",
                    "engine":"gnn"
                }
            ],
            "variables": {
                "file": "fragments/trigger-variables.json",
                "btagging": {
                    "halves": [
                        "GN120220813_pb",
                        "GN120220813_pc",
                        "GN120220813_pu",
                        "DL1d20211216_pb",
                        "DL1d20211216_pc",
                        "DL1d20211216_pu",
                        "DL1bb20220331_pb"
                    ]
                },
                "jet" : {
                    "halves": [
                        "deltaRToPFlowJet",
                        "deltaRToEMTopoJet",
                        "dips20211116_pb",
                        "dips20211116_pc",
                        "dips20211116_pu",
                        "fastDips_pb",
                        "fastDips_pc",
                        "fastDips_pu",
                        "fastDIPS20211215_pb",
                        "fastDIPS20211215_pc",
                        "fastDIPS20211215_pu"
                    ]
                },
                "default_mapping": {
                    "file": "fragments/default-mapping.json"
                }
            },
            "tracks": [
                {
                    "file": "fragments/tracks-loose-on-jet.json",
                    "btagging_link": "btaggingLink",
                    "input_name": "BTagTrackToJetAssociator",
                    "output_name": "tracks"
                },
                {
                    "file": "fragments/tracks-loose-on-jet.json",
                    "input_name": "FsTracks",
                    "output_name": "fs_tracks"
                },
                {
                    "file": "fragments/tracks-loose-on-jet.json",
                    "input_name": "FsTracks",
                    "output_name": "fs_tracks_simple_ip",
                    "ip_prefix": "poboyIp_"
                }
            ],
            "truths": [
                {
                    "file": "fragments/overlap-leptons.json"
                }
            ],
            "decorate": {
                "jet_aug": false,
                "btag_jes": true,
                "soft_muon": false,
                "track_sv_info": false
            },
            "btagging_link": "btaggingLink"
        }
    },
    "emtopo":{
        "mc21": true,
        "mc24":false,
        "data":false,
        "offline_jets": true,
        "do_track_matching": true,
        "emtopo_jets": true,
        "additional_chains": [],
        "dumper": {

            "jet_collection": "tempEmtopoJets",
            "calibration": {},
            "selection": {
                "minimum_jet_pt": 20000,
                "maximum_jet_absolute_eta": 2.5
            },
            "vertex_collection": "HLT_IDVertex_FS",
            "dl2_configs": [],
            "variables": {
                
                "jet": {
                    "ints": [
                        "HadronConeExclTruthLabelID",
                        "HadronConeExclExtendedTruthLabelID",
                        "jetPtRank",
                        "n_super_tracks"
                    ],
                    "floats": [
                        "HadronConeExclTruthLabelPt",
                        "pt"
                    ],
                    "halves": [
                        "eta",
                        "fastDips_pb",
                        "fastDips_pc",
                        "fastDips_pu"
                    ]
                },
                "event" : {
                    "compressed": [
                        "mcEventWeight",
                        "eventNumber",
                        "averageInteractionsPerCrossing",
                        "actualInteractionsPerCrossing",
                        "nPrimaryVertices",
                        "primaryVertexDetectorZ",
                        "primaryVertexDetectorZUncertainty"
                    ]
                },
                "default_mapping": {
                    "file": "fragments/default-mapping.json"
                }
            },
            "tracks": [
                {
                    "file": "fragments/tracks-relative-to-beamspot.json",
                    "input_name": "TracksForMinimalJetTag",
                    "output_name": "super_tracks"
                }
            ],
            "truths": [
                {
                    "file": "fragments/overlap-leptons.json"
                }
            ],
            "decorate": {
                "jet_aug": false,
                "btag_jes": false,
                "soft_muon": false,
                "track_sv_info": false
            },
            "btagging_link": ""
        }
    }
}

