# Sampls with all hits stored
#
# https://its.cern.ch/jira/browse/ATR-27293
#
valid1.601229.PhPy8EG_A14_ttbar_hdamp258p75_SingleLep.recon.AOD.e8514_e8528_s4111_s4114_r14634
#valid1.801165.Py8EG_A14NNPDF23LO_jj_JZ0.recon.AOD.e8514_e8528_s4111_s4114_r14634
#valid1.801166.Py8EG_A14NNPDF23LO_jj_JZ1.recon.AOD.e8514_e8528_s4111_s4114_r14634
#valid1.801167.Py8EG_A14NNPDF23LO_jj_JZ2.recon.AOD.e8514_e8528_s4111_s4114_r14634
#valid1.801168.Py8EG_A14NNPDF23LO_jj_JZ3.recon.AOD.e8514_e8528_s4111_s4114_r14634
#valid1.801169.Py8EG_A14NNPDF23LO_jj_JZ4.recon.AOD.e8514_e8528_s4111_s4114_r14634
